{
    "plugins": {
        "@textlint/text": {
            "extensions": [".org"]
        },
        "latex": true
    },
    "rules": {
        "write-good": true,
        "no-start-duplicated-conjunction": true,
        "max-comma": true,
        "terminology": true,
        "period-in-list-item": true,
        "abbr-within-parentheses": true,
        "alex": false,
        "common-misspellings": true,
        "en-max-word-count": true,
        "diacritics": true,
        "stop-words": true
    }
}
